<?xml version="1.0" encoding="utf-8"?>
<!-- Generator: Adobe Illustrator 19.2.1, SVG Export Plug-In . SVG Version: 6.00 Build 0)  -->
<svg version="1.1" id="Layer_1" xmlns="http://www.w3.org/2000/svg" xmlns:xlink="http://www.w3.org/1999/xlink" x="0px" y="0px"
	 viewBox="0 0 74.7 32.6" style="enable-background:new 0 0 74.7 32.6;" xml:space="preserve">
<style type="text/css">
	.st0{fill:#069DC7;}
</style>
<g id="DO_NOT_PRINT">
</g>
<g id="Livello_1">
	<g>
		<g>
			<path d="M6,32.4H0v-9.8h0.3v9.5H6V32.4z"/>
			<path d="M6.6,22.6v9.8H6.3v-9.8H6.6z"/>
			<path d="M13.3,27.1v0.3H8.1v5H7.8v-9.8h6v0.3H8.1v4.3L13.3,27.1L13.3,27.1z"/>
			<path d="M20.7,32.1v0.3h-6.5v-9.8h6.5v0.3h-6.2v4.3h5.8v0.3h-5.8v4.7L20.7,32.1L20.7,32.1z"/>
			<path d="M31,24.1c-0.2-0.3-0.4-0.6-0.7-0.8c-0.3-0.2-0.6-0.4-1-0.5c-0.4-0.1-0.8-0.2-1.2-0.2c-0.3,0-0.7,0-1.1,0.1
				s-0.7,0.2-1,0.4c-0.3,0.2-0.5,0.4-0.7,0.7c-0.2,0.3-0.3,0.6-0.3,1.1c0,0.4,0.1,0.8,0.3,1.1c0.2,0.3,0.5,0.5,0.8,0.6
				c0.3,0.2,0.7,0.3,1.1,0.4c0.4,0.1,0.8,0.2,1.2,0.3c0.5,0.1,0.9,0.2,1.3,0.3c0.4,0.1,0.8,0.3,1.1,0.4c0.3,0.2,0.5,0.4,0.7,0.7
				s0.3,0.7,0.3,1.2s-0.1,0.9-0.3,1.2s-0.5,0.6-0.8,0.8s-0.7,0.4-1.1,0.5c-0.4,0.1-0.8,0.1-1.2,0.1c-0.6,0-1.1-0.1-1.5-0.2
				c-0.5-0.1-0.9-0.3-1.2-0.6c-0.3-0.3-0.6-0.6-0.8-1.1c-0.2-0.4-0.3-1-0.3-1.6h0.3c0,0.6,0.1,1.1,0.3,1.5c0.2,0.4,0.4,0.7,0.7,1
				c0.3,0.3,0.7,0.4,1.1,0.6c0.4,0.1,0.9,0.2,1.4,0.2c0.4,0,0.8,0,1.1-0.1c0.4-0.1,0.7-0.2,1-0.4s0.5-0.4,0.7-0.7s0.3-0.7,0.3-1.1
				c0-0.5-0.1-0.9-0.3-1.2s-0.5-0.5-0.8-0.7s-0.7-0.3-1.1-0.4c-0.4-0.1-0.8-0.2-1.2-0.3c-0.4-0.1-0.8-0.2-1.2-0.3
				c-0.4-0.1-0.7-0.2-1.1-0.4c-0.3-0.2-0.6-0.4-0.8-0.7c-0.2-0.3-0.3-0.7-0.3-1.2s0.1-0.9,0.3-1.2c0.2-0.3,0.5-0.6,0.8-0.8
				c0.3-0.2,0.7-0.3,1.1-0.4s0.8-0.1,1.2-0.1c0.5,0,0.9,0.1,1.3,0.2c0.4,0.1,0.8,0.3,1.1,0.5s0.5,0.5,0.7,0.9s0.3,0.8,0.3,1.4h-0.3
				C31.2,24.8,31.1,24.4,31,24.1z"/>
			<path d="M40.7,30.2c-0.2,0.5-0.5,0.9-0.9,1.3c-0.4,0.4-0.8,0.6-1.3,0.8s-1,0.3-1.7,0.3c-0.6,0-1.2-0.1-1.8-0.4
				c-0.5-0.3-1-0.6-1.4-1s-0.7-1-0.9-1.6s-0.3-1.3-0.3-2c0-0.6,0.1-1.2,0.3-1.8c0.2-0.6,0.4-1.2,0.8-1.7c0.4-0.5,0.8-0.9,1.4-1.2
				c0.6-0.3,1.3-0.5,2.1-0.5c0.6,0,1.2,0.1,1.7,0.3c0.5,0.2,0.9,0.5,1.2,0.8s0.6,0.7,0.7,1c0.2,0.4,0.3,0.7,0.3,1h-0.3
				c0-0.4-0.1-0.7-0.3-1s-0.4-0.6-0.7-0.9s-0.7-0.5-1.1-0.7c-0.5-0.2-1-0.3-1.5-0.3c-0.8,0-1.5,0.2-2,0.5c-0.6,0.3-1,0.7-1.3,1.2
				s-0.6,1-0.7,1.6c-0.2,0.6-0.2,1.1-0.2,1.6c0,0.6,0.1,1.2,0.3,1.8s0.5,1.1,0.8,1.5c0.4,0.4,0.8,0.8,1.3,1.1s1.1,0.4,1.8,0.4
				c0.6,0,1.1-0.1,1.6-0.3s0.9-0.5,1.2-0.8s0.6-0.7,0.8-1.2s0.4-1,0.4-1.5h0.3C41.1,29.1,40.9,29.7,40.7,30.2z"/>
			<path d="M42.2,22.6v9.8h-0.3v-9.8H42.2z"/>
			<path d="M49.9,32.1v0.3h-6.5v-9.8h6.5v0.3h-6.2v4.3h5.8v0.3h-5.8v4.7L49.9,32.1L49.9,32.1z"/>
			<path d="M50.9,22.6l6.7,9.4l0,0v-9.4h0.3v9.8h-0.4L50.8,23l0,0v9.4h-0.3v-9.8H50.9z"/>
			<path d="M66.9,30.2c-0.2,0.5-0.5,0.9-0.9,1.3c-0.4,0.4-0.8,0.6-1.3,0.8s-1,0.3-1.7,0.3c-0.6,0-1.2-0.1-1.8-0.4
				c-0.5-0.3-1-0.6-1.4-1s-0.7-1-0.9-1.6s-0.3-1.3-0.3-2c0-0.6,0.1-1.2,0.3-1.8c0.2-0.6,0.4-1.2,0.8-1.7s0.8-0.9,1.4-1.2
				c0.6-0.3,1.3-0.5,2.1-0.5c0.6,0,1.2,0.1,1.7,0.3s0.9,0.5,1.2,0.8c0.3,0.3,0.6,0.7,0.7,1c0.2,0.4,0.3,0.7,0.3,1h-0.3
				c0-0.4-0.1-0.7-0.3-1c-0.2-0.3-0.4-0.6-0.7-0.9c-0.3-0.3-0.7-0.5-1.1-0.7s-0.9-0.3-1.4-0.3c-0.8,0-1.5,0.2-2,0.5
				c-0.6,0.3-1,0.7-1.3,1.2s-0.6,1-0.7,1.6c-0.2,0.6-0.2,1.1-0.2,1.6c0,0.6,0.1,1.2,0.3,1.8c0.2,0.6,0.5,1.1,0.8,1.5
				c0.4,0.4,0.8,0.8,1.3,1.1s1.1,0.4,1.8,0.4c0.6,0,1.1-0.1,1.6-0.3s0.9-0.5,1.2-0.8c0.3-0.3,0.6-0.7,0.8-1.2c0.2-0.5,0.4-1,0.4-1.5
				h0.3C67.3,29.1,67.1,29.7,66.9,30.2z"/>
			<path d="M74.7,32.1v0.3h-6.5v-9.8h6.5v0.3h-6.2v4.3h5.8v0.3h-5.8v4.7L74.7,32.1L74.7,32.1z"/>
		</g>
	</g>
	<g>
		<g>
			<path d="M50.1,20.6v-2l0,0c-0.2,0.6-0.5,1.2-1,1.6s-1.2,0.6-2,0.6c-0.4,0-0.8-0.1-1.2-0.2S45.2,20.3,45,20
				c-0.3-0.3-0.5-0.6-0.6-0.9c-0.1-0.4-0.2-0.8-0.2-1.3v-5.5h0.3v5.4c0,0.5,0.1,0.9,0.2,1.2c0.1,0.3,0.3,0.6,0.6,0.8
				c0.2,0.2,0.5,0.4,0.8,0.5s0.7,0.2,1,0.2c0.5,0,0.9-0.1,1.3-0.3c0.4-0.2,0.7-0.4,0.9-0.8c0.3-0.3,0.4-0.7,0.6-1.1
				c0.1-0.4,0.2-0.9,0.2-1.3v-4.7h0.3v8.4H50.1z"/>
			<path d="M51.9,10.8V9.2h0.3v1.6H51.9z M51.9,20.6v-8.3h0.3v8.3H51.9z"/>
			<path d="M58.8,13.8c-0.1-0.3-0.3-0.5-0.5-0.7s-0.5-0.3-0.8-0.4s-0.7-0.1-1.1-0.1c-0.6,0-1,0.1-1.4,0.2c-0.3,0.2-0.6,0.3-0.7,0.5
				c-0.2,0.2-0.3,0.4-0.3,0.6s-0.1,0.3-0.1,0.4c0,0.4,0.1,0.7,0.2,0.9c0.2,0.2,0.4,0.4,0.7,0.5s0.6,0.2,0.9,0.3
				c0.3,0.1,0.7,0.2,1.2,0.3c0.3,0.1,0.6,0.2,1,0.3c0.3,0.1,0.6,0.2,0.9,0.4c0.3,0.2,0.5,0.4,0.6,0.6c0.2,0.2,0.2,0.6,0.2,1
				s-0.1,0.8-0.3,1.1c-0.2,0.3-0.4,0.5-0.7,0.7s-0.6,0.3-1,0.4s-0.7,0.1-1.1,0.1c-1.1,0-1.9-0.2-2.5-0.7s-0.8-1.2-0.8-2.3h0.3
				c0,0.9,0.3,1.6,0.8,2s1.3,0.7,2.2,0.7c0.3,0,0.6,0,0.9-0.1c0.3-0.1,0.6-0.2,0.9-0.3c0.3-0.2,0.5-0.4,0.6-0.6
				c0.2-0.2,0.2-0.5,0.2-0.9S59,18,58.9,17.8c-0.2-0.2-0.4-0.4-0.6-0.6c-0.3-0.1-0.6-0.3-0.9-0.3c-0.3-0.1-0.7-0.2-1-0.3
				c-0.4-0.1-0.7-0.2-1-0.3c-0.3-0.1-0.6-0.2-0.8-0.3c-0.3-0.1-0.6-0.4-0.8-0.6c-0.2-0.3-0.2-0.6-0.2-1.1c0-0.2,0-0.5,0.1-0.7
				s0.3-0.5,0.5-0.7s0.5-0.4,0.9-0.5s0.8-0.2,1.3-0.2c0.9,0,1.6,0.2,2.2,0.6c0.5,0.4,0.8,1.1,0.8,2h-0.3C59,14.4,59,14,58.8,13.8z"
				/>
			<path d="M65.9,13.8c-0.1-0.3-0.3-0.5-0.5-0.7s-0.5-0.3-0.8-0.4s-0.7-0.1-1.1-0.1c-0.6,0-1,0.1-1.4,0.2c-0.3,0.2-0.6,0.3-0.7,0.5
				c-0.2,0.2-0.3,0.4-0.3,0.6S61,14.2,61,14.3c0,0.4,0.1,0.7,0.2,0.9s0.4,0.4,0.7,0.5c0.3,0.1,0.6,0.2,0.9,0.3
				c0.3,0.1,0.7,0.2,1.2,0.3c0.3,0.1,0.6,0.2,1,0.3c0.3,0.1,0.6,0.2,0.9,0.4c0.3,0.2,0.5,0.4,0.6,0.6c0.2,0.2,0.2,0.6,0.2,1
				s-0.1,0.8-0.3,1.1c-0.2,0.3-0.4,0.5-0.7,0.7c-0.3,0.2-0.6,0.3-1,0.4s-0.7,0.1-1.1,0.1c-1.1,0-1.9-0.2-2.5-0.7s-0.8-1.2-0.8-2.3
				h0.3c0,0.9,0.3,1.6,0.8,2s1.3,0.7,2.2,0.7c0.3,0,0.6,0,0.9-0.1s0.6-0.2,0.9-0.3c0.3-0.2,0.5-0.4,0.6-0.6c0.2-0.2,0.2-0.5,0.2-0.9
				S66.1,18,66,17.8c-0.2-0.2-0.4-0.4-0.6-0.6c-0.3-0.1-0.6-0.3-0.9-0.3c-0.3-0.1-0.7-0.2-1-0.3c-0.4-0.1-0.7-0.2-1-0.3
				c-0.3-0.1-0.6-0.2-0.8-0.3c-0.3-0.1-0.6-0.4-0.8-0.6c-0.2-0.3-0.2-0.6-0.2-1.1c0-0.2,0-0.5,0.1-0.7s0.3-0.5,0.5-0.7
				s0.5-0.4,0.9-0.5s0.8-0.2,1.3-0.2c0.9,0,1.6,0.2,2.2,0.6c0.5,0.4,0.8,1.1,0.8,2h-0.3C66.1,14.4,66.1,14,65.9,13.8z"/>
			<path d="M67.9,18.1c0.1,0.5,0.3,0.9,0.6,1.2c0.3,0.4,0.6,0.6,1,0.8c0.4,0.2,0.9,0.3,1.5,0.3c0.9,0,1.6-0.2,2.2-0.7s0.9-1.1,1.1-2
				h0.2c-0.1,1-0.5,1.7-1.1,2.2S72,20.7,71,20.7c-0.6,0-1.2-0.1-1.6-0.3c-0.5-0.2-0.8-0.5-1.1-0.9c-0.3-0.4-0.5-0.9-0.6-1.4
				s-0.2-1.1-0.2-1.7c0-0.7,0.1-1.3,0.3-1.8c0.2-0.5,0.5-1,0.8-1.4s0.7-0.7,1.2-0.8c0.4-0.2,0.9-0.3,1.3-0.3c0.6,0,1.2,0.1,1.7,0.4
				c0.5,0.2,0.8,0.6,1.1,1c0.3,0.4,0.5,0.9,0.6,1.4s0.2,1.1,0.2,1.6h-6.9C67.7,17.1,67.8,17.6,67.9,18.1z M74.1,14.8
				c-0.1-0.5-0.3-0.9-0.6-1.2c-0.3-0.3-0.6-0.6-1-0.8c-0.4-0.2-0.9-0.3-1.4-0.3s-0.9,0.1-1.3,0.3c-0.4,0.2-0.7,0.4-1,0.7
				c-0.3,0.3-0.5,0.7-0.7,1.2s-0.3,1-0.3,1.6h6.6C74.3,15.7,74.2,15.3,74.1,14.8z"/>
		</g>
	</g>
	<g>
		<path class="st0" d="M32.7,10.9c-0.2,0.7-0.2,1.6-0.4,2.4c0.6,1.7,1.1,3.4,1.7,5.1c-1,0.1-2.1-1-2.6-2.1c-0.2,0.4-0.4,0.9-0.8,1.3
			c1.3,1.8,3,2.7,4.5,0.7c-0.2,0-0.5,0.1-0.7,0.1C33.8,15.9,33.2,13.4,32.7,10.9z"/>
		<path class="st0" d="M27.5,8.1c1.4,1.7,2,3.7,2.6,5.3c-0.2,0.7-0.3,1.6-0.6,2.2c-0.4-1-0.7-2-1-2.9c-0.1,1.7-0.1,3.4-0.2,5.1
			c-0.9,1.1-1.9,1-2.7,0.2c-1.3-1.2-1.7-2.8-2.1-4.1c-0.1-0.4-0.4-0.9-0.4-1.2c0-0.3,0.1-0.9,0.1-1.2c0-0.1,0-0.3,0.1-0.3
			c0.1,0.2,0.2,0.5,0.4,0.7c1.3-0.5,2.5-1,3.8-1.5c-0.2-0.2-0.2-0.5-0.4-0.7c-0.2-0.1-0.5-0.2-0.7-0.3c-0.8-0.3-1.6-0.6-2.3-0.8
			c0.1-0.1,0.2-0.2,0.3-0.4c0.9,0.4,1.7,0.9,2.6,1.2c-0.4-0.8-1.3-1.9-2-2C25.8,6.3,26.8,7.3,27.5,8.1z M27.6,10.5
			c-1.2,0.5-2.4,1.3-3.6,1.9c0.4,1,0.7,1.9,1.2,2.9c0.9-1.4,1.8-2.8,2.7-4.2C27.8,10.9,27.7,10.7,27.6,10.5z M28,11.4
			c-0.2,0.1-0.2,0.3-0.3,0.5c-0.8,1.3-1.5,2.7-2.3,4c0.4,0.9,1.4,2,2.2,1.9c0.2-1.7,0.4-3.4,0.5-5.2C28.2,12.2,28.3,11.9,28,11.4
			C28,11.5,28,11.4,28,11.4z"/>
		<path d="M46.1,0.1c-1.8-0.4-4.1,1.3-5.2,3C38,7.5,39,12.1,37,16.7c-0.6,1.5-1.9,3.5-3.6,3.5c1.6,0.4,4-1.1,5.2-3
			c2.3-3.6,2-7.2,3-10.8c0.4-1.6,1-3.9,2.6-5.4C44.9,0.4,45.5,0.1,46.1,0.1z"/>
		<path d="M35.8,4.9c-0.9-0.1-1.7,0.2-2.5,0.8c-1.1,0.9-1.6,1.9-2,3.1c-0.7,2.1-0.8,4.2-1.4,6.3c-0.3,1-0.7,2.2-1.5,3.1
			c-0.5,0.5-1.1,0.8-1.6,0.8c1,0.1,2-0.2,3-1.3c1.6-1.7,2.1-4.2,2.3-6c0.1-1.1,0.3-2,0.6-3.1C33.2,7.4,34.1,5.1,35.8,4.9z"/>
		<path d="M25.4,6.4c-1.6-0.3-2.7,1.8-3.2,3.2c-0.5,1.7-0.5,3.4-0.9,5.2c-0.2,0.8-0.5,1.9-1.1,2.6c-0.3,0.4-0.7,0.6-1,0.6
			c0.6,0.1,1.3-0.1,2-0.9c1.3-1.4,1.6-3.6,1.8-5.2c0.1-0.9,0.2-1.7,0.4-2.6C23.6,8.3,24.1,6.6,25.4,6.4z"/>
		<path class="st0" d="M22,9.5c-0.4-0.3-0.8-0.4-1.2,0c0,0.1,0.2,0.1,0.3,0.1c0.2,0.1,0.5,0.4,0.7,0.6l0,0C21.9,10.1,22,9.7,22,9.5z
			"/>
		<path d="M21.3,9c-0.4-0.1-0.8,0.1-1.3,0.5c-1.2,1.3-1.1,3.5-1.4,5c-0.2,0.7-0.5,1.7-1.3,1.9c0.4,0.1,0.8-0.1,1.3-0.6
			c1.1-1.2,0.9-3.3,1.3-4.8C20.1,10.4,20.4,9.2,21.3,9z"/>
		<path class="st0" d="M20.6,9.8c-0.1,0-0.1,0.2-0.2,0.3c0.3,1.3,0.6,2.5,0.8,3.8c0.1-0.4,0.3-0.9,0.2-1.3c0-0.4-0.3-0.9-0.5-1.3
			C20.8,10.7,20.7,10.2,20.6,9.8z"/>
	</g>
</g>
</svg>
